{
  "orders": [{
    "code": "24013398212",
    "guid": "99b646f0-f6d6-477b-990d-d37e2e19d733",
    "placed": "2019-08-20T08:57:03+0000",
    "status": "PAYMENT_AMOUNT_RESERVED",
    "statusDisplay": "processing",
    "total": {
      "currencyIso": "USD",
      "formattedValue": "8.49 $",
      "priceType": "BUY",
      "value": 8.49
    }
  }, {
    "code": "24013394302",
    "guid": "00af02f2-2943-41b3-84f7-21ba7061743f",
    "placed": "2019-08-16T10:45:09+0000",
    "status": "PAYMENT_FRAUD",
    "statusDisplay": "processing",
    "total": {
      "currencyIso": "USD",
      "formattedValue": "265.57 $",
      "priceType": "BUY",
      "value": 265.57
    }
  }, {
    "code": "24013394293",
    "guid": "dffdd019-5207-4cd2-9e88-c6cb78e68c80",
    "placed": "2019-08-16T10:39:29+0000",
    "status": "CREATED",
    "statusDisplay": "created",
    "total": {
      "currencyIso": "USD",
      "formattedValue": "31.20 $",
      "priceType": "BUY",
      "value": 31.2
    }
  }, {
    "code": "24013394290",
    "guid": "dac52f35-d89e-4dcf-950f-b7d97e95d7aa",
    "placed": "2019-08-16T10:35:04+0000",
    "status": "PAYMENT_AMOUNT_RESERVED",
    "statusDisplay": "processing",
    "total": {
      "currencyIso": "USD",
      "formattedValue": "17.43 $",
      "priceType": "BUY",
      "value": 17.43
    }
  }, {
    "code": "24013388751",
    "guid": "24d94d47-fffc-419a-b824-925674637c60",
    "placed": "2019-08-13T14:41:42+0000",
    "status": "CREATED",
    "statusDisplay": "created",
    "total": {
      "currencyIso": "USD",
      "formattedValue": "35.85 $",
      "priceType": "BUY",
      "value": 35.85
    }
  }, {
    "code": "24013388748",
    "guid": "51f071a4-0106-4b6f-b0a9-3f23a838c9c7",
    "placed": "2019-08-13T14:33:01+0000",
    "status": "PAYMENT_FRAUD",
    "statusDisplay": "processing",
    "total": {
      "currencyIso": "USD",
      "formattedValue": "42.49 $",
      "priceType": "BUY",
      "value": 42.49
    }
  }, {
    "code": "24013388744",
    "guid": "3d5170ee-d62b-4ecd-a39e-225a921f4997",
    "placed": "2019-08-13T14:24:21+0000",
    "status": "PAYMENT_AMOUNT_RESERVED",
    "statusDisplay": "processing",
    "total": {
      "currencyIso": "USD",
      "formattedValue": "17.43 $",
      "priceType": "BUY",
      "value": 17.43
    }
  }, {
    "code": "24013388741",
    "guid": "8aa8b376-d8f9-46a8-aa3a-749183d68059",
    "placed": "2019-08-13T14:13:13+0000",
    "status": "PAYMENT_AMOUNT_RESERVED",
    "statusDisplay": "processing",
    "total": {
      "currencyIso": "USD",
      "formattedValue": "4.77 $",
      "priceType": "BUY",
      "value": 4.77
    }
  }, {
    "code": "24013388720",
    "guid": "af9e5bea-925a-484f-8773-032ce7124b95",
    "placed": "2019-08-13T13:21:25+0000",
    "status": "CREATED",
    "statusDisplay": "created",
    "total": {
      "currencyIso": "USD",
      "formattedValue": "14.77 $",
      "priceType": "BUY",
      "value": 14.77
    }
  }, {
    "code": "24013388595",
    "guid": "eb50cf01-46f3-4d91-8e11-e46228dfb48b",
    "placed": "2019-08-13T07:55:24+0000",
    "status": "PAYMENT_PROGRESS",
    "statusDisplay": "processing",
    "total": {
      "currencyIso": "USD",
      "formattedValue": "14.77 $",
      "priceType": "BUY",
      "value": 14.77
    }
  }, {
    "code": "24013388569",
    "guid": "6996e310-a59c-4de7-82d3-c8ae3e93306b",
    "placed": "2019-08-13T07:34:56+0000",
    "statusDisplay": "processing",
    "total": {
      "currencyIso": "USD",
      "formattedValue": "14.77 $",
      "priceType": "BUY",
      "value": 14.77
    }
  }, {
    "code": "24013388544",
    "guid": "3ccbbba0-ebcb-4670-9ee4-c3b91c092624",
    "placed": "2019-08-13T06:37:49+0000",
    "status": "CREATED",
    "statusDisplay": "created",
    "total": {
      "currencyIso": "USD",
      "formattedValue": "14.77 $",
      "priceType": "BUY",
      "value": 14.77
    }
  }, {
    "code": "24013388364",
    "guid": "288674cc-9e60-409f-89b1-14ac9a8302dc",
    "placed": "2019-08-12T14:03:16+0000",
    "status": "PAYMENT_AMOUNT_RESERVED",
    "statusDisplay": "processing",
    "total": {
      "currencyIso": "USD",
      "formattedValue": "17.43 $",
      "priceType": "BUY",
      "value": 17.43
    }
  }, {
    "code": "24013388360",
    "guid": "3673c1de-9032-4e51-a915-9e0abe5b9a37",
    "placed": "2019-08-12T13:54:27+0000",
    "status": "PAYMENT_AMOUNT_RESERVED",
    "statusDisplay": "processing",
    "total": {
      "currencyIso": "USD",
      "formattedValue": "17.43 $",
      "priceType": "BUY",
      "value": 17.43
    }
  }, {
    "code": "24013388307",
    "guid": "4b1ff04f-0600-46fe-847d-ae1ed07d0240",
    "placed": "2019-08-12T11:38:50+0000",
    "status": "CREATED",
    "statusDisplay": "created",
    "total": {
      "currencyIso": "USD",
      "formattedValue": "35.85 $",
      "priceType": "BUY",
      "value": 35.85
    }
  }, {
    "code": "24003569774",
    "guid": "23b061c0-a37a-4427-abb9-e98f2eece9fd",
    "placed": "2019-06-17T13:58:56+0000",
    "status": "PAYMENT_FRAUD",
    "statusDisplay": "processing",
    "total": {
      "currencyIso": "USD",
      "formattedValue": "195.96 $",
      "priceType": "BUY",
      "value": 195.96
    }
  }, {
    "code": "24003379830",
    "guid": "2723b938-9c8d-4c52-b58f-f724e2cf395d",
    "placed": "2019-05-17T10:44:19+0000",
    "status": "CREATED",
    "statusDisplay": "created",
    "total": {
      "currencyIso": "USD",
      "formattedValue": "25.92 $",
      "priceType": "BUY",
      "value": 25.92
    }
  }, {
    "code": "24003379825",
    "guid": "a597fc65-38db-490d-a918-eacbe6047fde",
    "placed": "2019-05-17T10:39:43+0000",
    "status": "CREATED",
    "statusDisplay": "created",
    "total": {
      "currencyIso": "USD",
      "formattedValue": "22.65 $",
      "priceType": "BUY",
      "value": 22.65
    }
  }, {
    "code": "24003379561",
    "guid": "d087c037-bb34-4a62-b1b2-65fb33ba2993",
    "placed": "2019-05-17T06:55:13+0000",
    "status": "CREATED",
    "statusDisplay": "created",
    "total": {
      "currencyIso": "USD",
      "formattedValue": "20.48 $",
      "priceType": "BUY",
      "value": 20.48
    }
  }, {
    "code": "24003376770",
    "guid": "6b7b9589-a03f-4ca1-8259-c1696073f414",
    "placed": "2019-05-15T12:26:31+0000",
    "status": "PAYMENT_AMOUNT_RESERVED",
    "statusDisplay": "processing",
    "total": {
      "currencyIso": "USD",
      "formattedValue": "16.67 $",
      "priceType": "BUY",
      "value": 16.67
    }
  }],
  "pagination": {
    "currentPage": 0,
    "pageSize": 20,
    "sort": "byDate",
    "totalPages": 3,
    "totalResults": 42
  },
  "sorts": [{
    "code": "byDate",
    "selected": true
  }, {
    "code": "byOrderNumber",
    "selected": false
  }]
}