{
  "type": "productCategorySearchPageWsDTO",
  "currentQuery": {
    "query": {
      "value": ":relevance:category:Tuscany_Campaign"
    },
    "url": "/search?q=%3Arelevance%3Acategory%3ATuscany_Campaign"
  },
  "freeTextSearch": "",
  "pagination": {
    "currentPage": 0,
    "pageSize": 1,
    "sort": "relevance",
    "totalPages": 18,
    "totalResults": 18
  },
  "products": [
    {
      "availableForPickup": false,
      "code": "HX9033/64",
      "discountPrice": {
        "currencyIso": "USD",
        "formattedValue": "$29.99",
        "priceType": "BUY",
        "value": 29.99
      },
      "price": {
        "currencyIso": "USD",
        "formattedValue": "$29.99",
        "priceType": "BUY",
        "value": 29.99
      },
      "priceRange": {},
      "stock": {
        "stockLevelStatus": "inStock"
      },
      "url": "/c//p/HX9033_64"
    }
  ],
  "sorts": [
    {
      "code": "relevance",
      "selected": true
    },
    {
      "code": "topRated",
      "selected": false
    },
    {
      "code": "name-asc",
      "selected": false
    },
    {
      "code": "name-desc",
      "selected": false
    },
    {
      "code": "price-asc",
      "selected": false
    },
    {
      "code": "price-desc",
      "selected": false
    }
  ]
}