{
  "orders": [
    {
      "code": "14000111376",
      "guid": "e4e61ca2-3727-4df5-9db6-ff3782a659be",
      "placed": "2016-07-04T09:32:57+0000",
      "statusDisplay": "processing",
      "total": {
        "currencyIso": "USD",
        "formattedValue": "$55.67",
        "priceType": "BUY",
        "value": 55.67
      }
    },
    {
      "code": "14000108024",
      "guid": "b417162c-56e5-47e6-9c7d-4b5d1cfebf80",
      "placed": "2016-06-29T10:41:32+0000",
      "status": "PAYMENT_PROGRESS",
      "statusDisplay": "processing",
      "total": {
        "currencyIso": "USD",
        "formattedValue": "$20.87",
        "priceType": "BUY",
        "value": 20.87
      }
    },
    {
      "code": "14000107385",
      "guid": "7b836bd3-3c32-43ee-ad13-8f04da6c47d2",
      "placed": "2016-06-21T04:57:58+0000",
      "status": "PAYMENT_PROGRESS",
      "statusDisplay": "processing",
      "total": {
        "currencyIso": "USD",
        "formattedValue": "$29.51",
        "priceType": "BUY",
        "value": 29.51
      }
    },
    {
      "code": "14000107205",
      "guid": "56256426-6b56-44f3-b4ce-8941a458a29a",
      "placed": "2016-06-13T13:03:43+0000",
      "status": "PAYMENT_PROGRESS",
      "statusDisplay": "processing",
      "total": {
        "currencyIso": "USD",
        "formattedValue": "$117.80",
        "priceType": "BUY",
        "value": 117.8
      }
    },
    {
      "code": "14000107166",
      "guid": "6144b503-9a0c-4c5f-b39c-839920e99463",
      "placed": "2016-06-10T09:44:44+0000",
      "status": "PAYMENT_PROGRESS",
      "statusDisplay": "processing",
      "total": {
        "currencyIso": "USD",
        "formattedValue": "$29.51",
        "priceType": "BUY",
        "value": 29.51
      }
    },
    {
      "code": "14000107160",
      "guid": "23a942cb-d2a8-4171-b242-604bfbf396b8",
      "placed": "2016-06-10T09:36:00+0000",
      "status": "PAYMENT_PROGRESS",
      "statusDisplay": "processing",
      "total": {
        "currencyIso": "USD",
        "formattedValue": "$29.51",
        "priceType": "BUY",
        "value": 29.51
      }
    },
    {
      "code": "14000107158",
      "guid": "4e718ad7-e2a7-4b82-b193-cdadcef07cab",
      "placed": "2016-06-10T09:34:06+0000",
      "status": "PAYMENT_PROGRESS",
      "statusDisplay": "processing",
      "total": {
        "currencyIso": "USD",
        "formattedValue": "$29.51",
        "priceType": "BUY",
        "value": 29.51
      }
    },
    {
      "code": "14000107154",
      "guid": "7a54cc68-7a4f-40c2-a466-1bd2f63bf4af",
      "placed": "2016-06-10T09:29:39+0000",
      "status": "PAYMENT_PROGRESS",
      "statusDisplay": "processing",
      "total": {
        "currencyIso": "USD",
        "formattedValue": "$17.70",
        "priceType": "BUY",
        "value": 17.7
      }
    },
    {
      "code": "14000107150",
      "guid": "2e250882-8258-4ee8-902e-b55ade2e6f26",
      "placed": "2016-06-10T09:09:29+0000",
      "status": "PAYMENT_PROGRESS",
      "statusDisplay": "processing",
      "total": {
        "currencyIso": "USD",
        "formattedValue": "$29.51",
        "priceType": "BUY",
        "value": 29.51
      }
    },
    {
      "code": "14000107146",
      "guid": "6db93c03-b23b-46b5-8ef8-b0c01bcd4a62",
      "placed": "2016-06-10T08:57:05+0000",
      "status": "PAYMENT_PROGRESS",
      "statusDisplay": "processing",
      "total": {
        "currencyIso": "USD",
        "formattedValue": "$147.55",
        "priceType": "BUY",
        "value": 147.55
      }
    },
    {
      "code": "14000107086",
      "guid": "9e6a4daf-316e-4dbd-9d9e-e3c8ad462e80",
      "placed": "2016-06-08T13:08:20+0000",
      "status": "PAYMENT_PROGRESS",
      "statusDisplay": "processing",
      "total": {
        "currencyIso": "USD",
        "formattedValue": "$56.47",
        "priceType": "BUY",
        "value": 56.47
      }
    },
    {
      "code": "14000107009",
      "guid": "59d3e5ac-0b07-4a44-8c65-31b842aded47",
      "placed": "2016-05-31T04:54:03+0000",
      "status": "CREATED",
      "statusDisplay": "created",
      "total": {
        "currencyIso": "USD",
        "formattedValue": "$38.27",
        "priceType": "BUY",
        "value": 38.27
      }
    },
    {
      "code": "14000099514",
      "guid": "04dba13d-1cb5-46e1-9bfe-55eb72bcdcfa",
      "placed": "2016-05-05T09:01:53+0000",
      "status": "PAYMENT_PROGRESS",
      "statusDisplay": "processing",
      "total": {
        "currencyIso": "USD",
        "formattedValue": "$107.99",
        "priceType": "BUY",
        "value": 107.99
      }
    },
    {
      "code": "14000099512",
      "guid": "aeda49fc-3b01-468a-a770-3b8a6dc335ee",
      "placed": "2016-05-05T09:00:00+0000",
      "status": "PAYMENT_PROGRESS",
      "statusDisplay": "processing",
      "total": {
        "currencyIso": "USD",
        "formattedValue": "$107.99",
        "priceType": "BUY",
        "value": 107.99
      }
    },
    {
      "code": "14000099510",
      "guid": "6d774b96-a5f4-4d25-9618-a12d65c4a698",
      "placed": "2016-05-05T08:58:14+0000",
      "status": "PAYMENT_PROGRESS",
      "statusDisplay": "processing",
      "total": {
        "currencyIso": "USD",
        "formattedValue": "$107.99",
        "priceType": "BUY",
        "value": 107.99
      }
    },
    {
      "code": "14000099508",
      "guid": "650cb67f-8a2e-426c-99db-6ded5c19d3e2",
      "placed": "2016-05-05T08:57:00+0000",
      "status": "PAYMENT_PROGRESS",
      "statusDisplay": "processing",
      "total": {
        "currencyIso": "USD",
        "formattedValue": "$107.99",
        "priceType": "BUY",
        "value": 107.99
      }
    },
    {
      "code": "14000099507",
      "guid": "4f1d2042-43c2-4483-91b5-fbe31b2c8cbb",
      "placed": "2016-05-05T08:56:41+0000",
      "status": "PAYMENT_PROGRESS",
      "statusDisplay": "processing",
      "total": {
        "currencyIso": "USD",
        "formattedValue": "$107.99",
        "priceType": "BUY",
        "value": 107.99
      }
    },
    {
      "code": "14000099032",
      "guid": "f5e0664f-42cd-4c25-8f46-241150edd085",
      "placed": "2016-04-22T10:49:13+0000",
      "status": "PAYMENT_PROGRESS",
      "statusDisplay": "processing",
      "total": {
        "currencyIso": "USD",
        "formattedValue": "$107.99",
        "priceType": "BUY",
        "value": 107.99
      }
    },
    {
      "code": "14000099029",
      "guid": "f82beda1-0d1a-479c-b25f-72b0339b91a1",
      "placed": "2016-04-22T10:45:14+0000",
      "status": "PAYMENT_PROGRESS",
      "statusDisplay": "processing",
      "total": {
        "currencyIso": "USD",
        "formattedValue": "$495.00",
        "priceType": "BUY",
        "value": 495
      }
    },
    {
      "code": "14000098741",
      "guid": "0d1bbde5-fb69-4ad9-b10f-8b576473e54e",
      "placed": "2016-04-20T05:45:25+0000",
      "status": "PAYMENT_PROGRESS",
      "statusDisplay": "processing",
      "total": {
        "currencyIso": "USD",
        "formattedValue": "$107.99",
        "priceType": "BUY",
        "value": 107.99
      }
    }
  ],
  "pagination": {
    "currentPage": 0,
    "pageSize": 20,
    "sort": "byDate",
    "totalPages": 5,
    "totalResults": 85
  },
  "sorts": [
    {
      "code": "byDate",
      "selected": true
    },
    {
      "code": "byOrderNumber",
      "selected": false
    }
  ]
}